{
  "project_info": {
    "project_number": "186872216137",
    "firebase_url": "https://playlist-43dc7.firebaseio.com",
    "project_id": "playlist-43dc7",
    "storage_bucket": "playlist-43dc7.appspot.com"
  },
  "client": [
    {
      "client_info": {
        "mobilesdk_app_id": "1:186872216137:android:fa548178dab63e0b",
        "android_client_info": {
          "package_name": "com.shantanupatil.youtubeplaylist"
        }
      },
      "oauth_client": [
        {
          "client_id": "186872216137-u25fs4lcqpanmd9dcft4ku9irke2lrgq.apps.googleusercontent.com",
          "client_type": 1,
          "android_info": {
            "package_name": "com.shantanupatil.youtubeplaylist",
            "certificate_hash": "57420df67051677841b2d390dda8f6070549ab0c"
          }
        },
        {
          "client_id": "186872216137-0g8qq0cm20pam3rmtva3c6ir6dn9id1f.apps.googleusercontent.com",
          "client_type": 3
        }
      ],
      "api_key": [
        {
          "current_key": "AIzaSyAnTp7-m68UQpU_kH5Nu5laYBHWAGA0YCI"
        }
      ],
      "services": {
        "analytics_service": {
          "status": 1
        },
        "appinvite_service": {
          "status": 2,
          "other_platform_oauth_client": [
            {
              "client_id": "186872216137-0g8qq0cm20pam3rmtva3c6ir6dn9id1f.apps.googleusercontent.com",
              "client_type": 3
            }
          ]
        },
        "ads_service": {
          "status": 2
        }
      }
    }
  ],
  "configuration_version": "1"
}